…
The dataset allows exploration of shopping habits such as the most
popular aisles, frequently reordered products, and peak shopping hours.

#### Part b)

Also, there are 134 different aisles in the dataset, and

``` r
top_aisles <- instacart |> 
  count(aisle, sort = TRUE)
top_aisles
```

    ## # A tibble: 134 × 2
    ##    aisle                              n
    ##    <chr>                          <int>
    ##  1 fresh vegetables              150609
    ##  2 fresh fruits                  150473
    ##  3 packaged vegetables fruits     78493
    ##  4 yogurt                         55240
    ##  5 packaged cheese                41699
    ##  6 water seltzer sparkling water  36617
    ##  7 milk                           32644
    ##  8 chips pretzels                 31269
    ##  9 soy lactosefree                26240
    ## 10 bread                          23635
    ## # ℹ 124 more rows
…
``` r
zip_count <- zip_zori_df |> 
  group_by(zip_code, county_name) |> 
  summarise(n_observed = n()) |> 
  arrange(desc(n_observed))
zip_count
```

    ## # A tibble: 149 × 3
    ## # Groups:   zip_code [149]
    ##    zip_code county_name n_observed
    ##       <dbl> <chr>            <int>
    ##  1    10001 New York           116
    ##  2    10002 New York           116
    ##  3    10003 New York           116
    ##  4    10005 New York           116
    ##  5    10010 New York           116
    ##  6    10012 New York           116
    ##  7    10013 New York           116
    ##  8    10014 New York           116
    ##  9    10017 New York           116
    ## 10    10018 New York           116
    ## # ℹ 139 more rows
…
